Introducción al análisis de datos usando R
…
```
## Warning: `tbl_df()` is deprecated as of dplyr 1.0.0.
## Please use `tibble::as_tibble()` instead.
## This warning is displayed once every 8 hours.
## Call `lifecycle::last_warnings()` to see where this warning was generated.
```

```r
# Muestra data_banco
data_banco
```

```
## # A tibble: 24,299 x 7
##    Sucursal Cajero ID_Transaccion Transaccion Tiempo_Servicio~ Satisfaccion
##       <dbl>  <dbl> <chr>          <chr>                  <dbl> <chr>       
##  1       62   4820 2              Cobro/Pago~              311 Muy Bueno   
##  2       62   4820 2              Cobro/Pago~              156 Malo        
##  3       62   4820 2              Cobro/Pago~              248 Regular     
##  4       62   4820 2              Cobro/Pago~               99 Regular     
##  5       62   4820 2              Cobro/Pago~              123 Muy Bueno   
##  6       62   4820 2              Cobro/Pago~              172 Bueno       
##  7       62   4820 2              Cobro/Pago~              140 Regular     
##  8       62   4820 2              Cobro/Pago~              247 Bueno       
##  9       62   4820 2              Cobro/Pago~              183 Muy Bueno   
## 10       62   4820 2              Cobro/Pago~               91 Muy Bueno   
## # ... with 24,289 more rows, and 1 more variable: Monto <chr>
```

---
# Seleccionar columnas: 	select()

Seleccionar las columnas Transaccion, Tiempo_Servicio_seg del data.frame data_banco

```r
# Seleccionar las columnas Transaccion, Tiempo_Servicio_seg del data.frame data_banco
# Note que como no se asignó, R evalúa la expresión y presenta el resultado
select( data_banco, Transaccion, Tiempo_Servicio_seg) 
```

```
## # A tibble: 24,299 x 2
##    Transaccion              Tiempo_Servicio_seg
##    <chr>                                  <dbl>
##  1 Cobro/Pago (Cta externa)                 311
##  2 Cobro/Pago (Cta externa)                 156
##  3 Cobro/Pago (Cta externa)                 248
##  4 Cobro/Pago (Cta externa)                  99
##  5 Cobro/Pago (Cta externa)                 123
##  6 Cobro/Pago (Cta externa)                 172
##  7 Cobro/Pago (Cta externa)                 140
##  8 Cobro/Pago (Cta externa)                 247
##  9 Cobro/Pago (Cta externa)                 183
## 10 Cobro/Pago (Cta externa)                  91
## # ... with 24,289 more rows
```
…
---
# Seleccionar columnas: 	select()

Seleccionar las columnas Transaccion, Tiempo_Servicio_seg del data.frame data_banco pero usando `%>%`, lo que permite programar como si se escribiese "del data_banco, selecciona las columnas Transaccion y Tiempo_Servicio_seg"

```r
# Seleccionar las columnas Transaccion, Tiempo_Servicio_seg del data.frame data_banco
# Note que como no se asignó, R evalúa la expresión y presenta el resultado
# Se lee, del data_banco, selecciona las columnas Transaccion y Tiempo_Servicio_seg
# data_banco[ , c("Transaccion", "Tiempo_Servicio_seg") ] ## Base de R
data_banco %>% select( Transaccion, Tiempo_Servicio_seg) 
```

```
## # A tibble: 24,299 x 2
##    Transaccion              Tiempo_Servicio_seg
##    <chr>                                  <dbl>
##  1 Cobro/Pago (Cta externa)                 311
##  2 Cobro/Pago (Cta externa)                 156
##  3 Cobro/Pago (Cta externa)                 248
##  4 Cobro/Pago (Cta externa)                  99
##  5 Cobro/Pago (Cta externa)                 123
##  6 Cobro/Pago (Cta externa)                 172
##  7 Cobro/Pago (Cta externa)                 140
##  8 Cobro/Pago (Cta externa)                 247
##  9 Cobro/Pago (Cta externa)                 183
## 10 Cobro/Pago (Cta externa)                  91
## # ... with 24,289 more rows
```
…
---
# Crear o modificar columnas/variables  		mutate()

Crear una nueva columna con el tiempo en minutos

```r
# Crear una nueva columna con el tiempo en minutos
data_banco %>% mutate(Tiempo_Servicio_Min= Tiempo_Servicio_seg/60)
```

```
## # A tibble: 24,299 x 8
##    Sucursal Cajero ID_Transaccion Transaccion Tiempo_Servicio~ Satisfaccion
##       <dbl>  <dbl> <chr>          <chr>                  <dbl> <chr>       
##  1       62   4820 2              Cobro/Pago~              311 Muy Bueno   
##  2       62   4820 2              Cobro/Pago~              156 Malo        
##  3       62   4820 2              Cobro/Pago~              248 Regular     
##  4       62   4820 2              Cobro/Pago~               99 Regular     
##  5       62   4820 2              Cobro/Pago~              123 Muy Bueno   
##  6       62   4820 2              Cobro/Pago~              172 Bueno       
##  7       62   4820 2              Cobro/Pago~              140 Regular     
##  8       62   4820 2              Cobro/Pago~              247 Bueno       
##  9       62   4820 2              Cobro/Pago~              183 Muy Bueno   
## 10       62   4820 2              Cobro/Pago~               91 Muy Bueno   
## # ... with 24,289 more rows, and 2 more variables: Monto <chr>,
## #   Tiempo_Servicio_Min <dbl>
```

---
# Crear o modificar columnas/variables  		mutate()

Crear una nueva columna con el tiempo en minutos

```r
# Crear una nueva columna con el tiempo en minutos
data_banco %>% mutate(Tiempo_Servicio_Min= Tiempo_Servicio_seg/60)
```

```
## # A tibble: 24,299 x 8
##    Sucursal Cajero ID_Transaccion Transaccion Tiempo_Servicio~ Satisfaccion
##       <dbl>  <dbl> <chr>          <chr>                  <dbl> <chr>       
##  1       62   4820 2              Cobro/Pago~              311 Muy Bueno   
##  2       62   4820 2              Cobro/Pago~              156 Malo        
##  3       62   4820 2              Cobro/Pago~              248 Regular     
##  4       62   4820 2              Cobro/Pago~               99 Regular     
##  5       62   4820 2              Cobro/Pago~              123 Muy Bueno   
##  6       62   4820 2              Cobro/Pago~              172 Bueno       
##  7       62   4820 2              Cobro/Pago~              140 Regular     
##  8       62   4820 2              Cobro/Pago~              247 Bueno       
##  9       62   4820 2              Cobro/Pago~              183 Muy Bueno   
## 10       62   4820 2              Cobro/Pago~               91 Muy Bueno   
## # ... with 24,289 more rows, and 2 more variables: Monto <chr>,
## #   Tiempo_Servicio_Min <dbl>
```
…
---
# Crear o modificar columnas/variables  		mutate()

Crear una nueva columna con el tiempo en minutos

```r
# Crear una nueva columna con el tiempo en minutos
data_banco <- data_banco %>%
  mutate(Tiempo_Servicio_Min= Tiempo_Servicio_seg/60)
# Mostrar
data_banco
```

```
## # A tibble: 24,299 x 8
##    Sucursal Cajero ID_Transaccion Transaccion Tiempo_Servicio~ Satisfaccion
##       <dbl>  <dbl> <chr>          <chr>                  <dbl> <chr>       
##  1       62   4820 2              Cobro/Pago~              311 Muy Bueno   
##  2       62   4820 2              Cobro/Pago~              156 Malo        
##  3       62   4820 2              Cobro/Pago~              248 Regular     
##  4       62   4820 2              Cobro/Pago~               99 Regular     
##  5       62   4820 2              Cobro/Pago~              123 Muy Bueno   
##  6       62   4820 2              Cobro/Pago~              172 Bueno       
##  7       62   4820 2              Cobro/Pago~              140 Regular     
##  8       62   4820 2              Cobro/Pago~              247 Bueno       
##  9       62   4820 2              Cobro/Pago~              183 Muy Bueno   
## 10       62   4820 2              Cobro/Pago~               91 Muy Bueno   
## # ... with 24,289 more rows, and 2 more variables: Monto <chr>,
## #   Tiempo_Servicio_Min <dbl>
```

---
# Nuevas columnas transmute()

Para conservar sólamente las nuevas columnas se usa  transmute()

```r
# Crear una nueva columna con el tiempo en minutos
data_banco %>%
  transmute(Tiempo_Servicio_Min= Tiempo_Servicio_seg/60)
```

```
## # A tibble: 24,299 x 1
##    Tiempo_Servicio_Min
##                  <dbl>
##  1                5.18
##  2                2.6 
##  3                4.13
##  4                1.65
##  5                2.05
##  6                2.87
##  7                2.33
##  8                4.12
##  9                3.05
## 10                1.52
## # ... with 24,289 more rows
```
…
