Resumir y Unir informacion
…
.pull-right[

```
## `summarise()` regrouping output by 'Satisfaccion' (override with `.groups` argument)
```

```
## # A tibble: 25 x 3
## # Groups:   Satisfaccion [5]
##    Satisfaccion Quartil  Valor
##    <fct>        <chr>    <dbl>
##  1 Muy Malo     Min       18.1
##  2 Muy Malo     Q1        69.5
##  3 Muy Malo     Mediana  111  
##  4 Muy Malo     Q3       176. 
##  5 Muy Malo     Max      823. 
##  6 Malo         Min       20  
##  7 Malo         Q1        71.7
##  8 Malo         Mediana  115. 
##  9 Malo         Q3       184. 
## 10 Malo         Max     1337. 
## # ... with 15 more rows
```
…
---
# Join - Ejemplo transacciones bancarias

Nótese el problema con el nombre "Sucursal"

```r
data_banco %>%
  left_join(data_sucursal, by= c("Sucursal"= "ID_Sucursal"))
```

```
## # A tibble: 24,299 x 9
##    Sucursal Cajero ID_Transaccion Transaccion Tiempo_Servicio~ Satisfaccion
##    <chr>    <chr>  <chr>          <chr>                  <dbl> <fct>       
##  1 62       4820   2              Cobro/Pago~              311 Muy Bueno   
##  2 62       4820   2              Cobro/Pago~              156 Malo        
##  3 62       4820   2              Cobro/Pago~              248 Regular     
##  4 62       4820   2              Cobro/Pago~               99 Regular     
##  5 62       4820   2              Cobro/Pago~              123 Muy Bueno   
##  6 62       4820   2              Cobro/Pago~              172 Bueno       
##  7 62       4820   2              Cobro/Pago~              140 Regular     
##  8 62       4820   2              Cobro/Pago~              247 Bueno       
##  9 62       4820   2              Cobro/Pago~              183 Muy Bueno   
## 10 62       4820   2              Cobro/Pago~               91 Muy Bueno   
## # ... with 24,289 more rows, and 3 more variables: Monto <dbl>,
## #   Sucursal.y <chr>, Nuevo_Sistema <chr>
```

---
# Join - Ejemplo transacciones bancarias

Cambiamos el nombre y ya reemplazamos el data_banco con este resultado

```r
data_banco <- data_banco %>%
  rename("ID_Sucursal"="Sucursal") %>%
  left_join(data_sucursal, by= c("ID_Sucursal"))
data_banco
```

```
## # A tibble: 24,299 x 9
##    ID_Sucursal Cajero ID_Transaccion Transaccion Tiempo_Servicio~ Satisfaccion
##    <chr>       <chr>  <chr>          <chr>                  <dbl> <fct>       
##  1 62          4820   2              Cobro/Pago~              311 Muy Bueno   
##  2 62          4820   2              Cobro/Pago~              156 Malo        
##  3 62          4820   2              Cobro/Pago~              248 Regular     
##  4 62          4820   2              Cobro/Pago~               99 Regular     
##  5 62          4820   2              Cobro/Pago~              123 Muy Bueno   
##  6 62          4820   2              Cobro/Pago~              172 Bueno       
##  7 62          4820   2              Cobro/Pago~              140 Regular     
##  8 62          4820   2              Cobro/Pago~              247 Bueno       
##  9 62          4820   2              Cobro/Pago~              183 Muy Bueno   
## 10 62          4820   2              Cobro/Pago~               91 Muy Bueno   
## # ... with 24,289 more rows, and 3 more variables: Monto <dbl>, Sucursal <chr>,
## #   Nuevo_Sistema <chr>
```
…
