Ordenar los datos y aplicar funciones por Rangos
…
.pull-right[

```
## `summarise()` regrouping output by 'Sucursal' (override with `.groups` argument)
```

```
## # A tibble: 35 x 3
## # Groups:   Sucursal [5]
##    Sucursal Estadistico  Valor
##    <chr>    <chr>        <dbl>
##  1 Alborada Min           21.0
##  2 Alborada Q1            93.3
##  3 Alborada Mediana      148. 
##  4 Alborada Q3           231. 
##  5 Alborada Max         1082. 
##  6 Alborada Media        183. 
##  7 Alborada Desv         131. 
##  8 Centro   Min           18.1
##  9 Centro   Q1            85.2
## 10 Centro   Mediana      136. 
## # ... with 25 more rows
```
…
---
# Ejemplo: Venta de empresa retail

Sólo para estos pocos ejemplos vamos a armar una estructura de datos típica de empresas de retail, donde se tiene columnas para el Almacen, Producto, Periodo (Año-Mes) y variables como la venta en dólares, el margen y en este caso el presupuesto.

```r
df_1
```

```
## # A tibble: 360 x 7
##    ALMACEN      PRODUCTO PERIODO      VTA MARGEN  PPTO VTA_COSTO
##    <chr>        <chr>    <date>     <dbl>  <dbl> <dbl>     <dbl>
##  1 Mall del Sol Prod_A   2015-01-01 2725.  0.236 3354.     2082.
##  2 Mall del Sol Prod_B   2015-01-01 5730.  0.376 2032.     3577.
##  3 Mall del Sol Prod_C   2015-01-01 3454.  0.279 2918.     2490.
##  4 Mall del Sol Prod_D   2015-01-01 6298.  0.248 3481.     4736.
##  5 Mall del Sol Prod_E   2015-01-01 6643.  0.286 5556.     4744.
##  6 Mall del Sol Prod_F   2015-01-01 1273.  0.288 2631.      906.
##  7 Riocentro    Prod_A   2015-01-01 4169.  0.367 1693.     2640.
##  8 Riocentro    Prod_B   2015-01-01 6355.  0.305 1176.     4416.
##  9 Riocentro    Prod_C   2015-01-01 4309.  0.345 5841.     2821.
## 10 Riocentro    Prod_D   2015-01-01 3740.  0.270 3881.     2730.
## # ... with 350 more rows
```

---
# Funciones para rangos de filas

Obtener el *Ramking mensual de productos más vendidos por almacén*

```r
df_1 %>%
  arrange(ALMACEN, PERIODO) %>%
  group_by(ALMACEN, PERIODO) %>%
  mutate(Prod_rank = min_rank(desc(VTA)))
```

```
## # A tibble: 360 x 8
## # Groups:   ALMACEN, PERIODO [60]
##    ALMACEN      PRODUCTO PERIODO      VTA MARGEN  PPTO VTA_COSTO Prod_rank
##    <chr>        <chr>    <date>     <dbl>  <dbl> <dbl>     <dbl>     <int>
##  1 Mall del Sol Prod_A   2015-01-01 2725.  0.236 3354.     2082.         5
##  2 Mall del Sol Prod_B   2015-01-01 5730.  0.376 2032.     3577.         3
##  3 Mall del Sol Prod_C   2015-01-01 3454.  0.279 2918.     2490.         4
##  4 Mall del Sol Prod_D   2015-01-01 6298.  0.248 3481.     4736.         2
##  5 Mall del Sol Prod_E   2015-01-01 6643.  0.286 5556.     4744.         1
##  6 Mall del Sol Prod_F   2015-01-01 1273.  0.288 2631.      906.         6
##  7 Mall del Sol Prod_A   2015-02-01 5065.  0.306 1692.     3517.         2
##  8 Mall del Sol Prod_B   2015-02-01 4436.  0.246 1776.     3343.         3
##  9 Mall del Sol Prod_C   2015-02-01 1618.  0.221 5432.     1260.         5
## 10 Mall del Sol Prod_D   2015-02-01 6399.  0.420 5543.     3712.         1
## # ... with 350 more rows
```

---
# Funciones para rangos de filas

Porcentaje de venta menor a la venta del producto, para cada almacén y mes

```r
df_1 %>%
  arrange(ALMACEN, PERIODO) %>%
  group_by(ALMACEN, PERIODO) %>%
  mutate(Porc = percent_rank(VTA))
```

```
## # A tibble: 360 x 8
## # Groups:   ALMACEN, PERIODO [60]
##    ALMACEN      PRODUCTO PERIODO      VTA MARGEN  PPTO VTA_COSTO  Porc
##    <chr>        <chr>    <date>     <dbl>  <dbl> <dbl>     <dbl> <dbl>
##  1 Mall del Sol Prod_A   2015-01-01 2725.  0.236 3354.     2082.   0.2
##  2 Mall del Sol Prod_B   2015-01-01 5730.  0.376 2032.     3577.   0.6
##  3 Mall del Sol Prod_C   2015-01-01 3454.  0.279 2918.     2490.   0.4
##  4 Mall del Sol Prod_D   2015-01-01 6298.  0.248 3481.     4736.   0.8
##  5 Mall del Sol Prod_E   2015-01-01 6643.  0.286 5556.     4744.   1  
##  6 Mall del Sol Prod_F   2015-01-01 1273.  0.288 2631.      906.   0  
##  7 Mall del Sol Prod_A   2015-02-01 5065.  0.306 1692.     3517.   0.8
##  8 Mall del Sol Prod_B   2015-02-01 4436.  0.246 1776.     3343.   0.6
##  9 Mall del Sol Prod_C   2015-02-01 1618.  0.221 5432.     1260.   0.2
## 10 Mall del Sol Prod_D   2015-02-01 6399.  0.420 5543.     3712.   1  
## # ... with 350 more rows
```

---
# Funciones para rangos de filas

Para el almacén y producto, la venta acumulada a cada cierre de mes empezando desde enero 

```r
df_1 %>%
  arrange(ALMACEN, PRODUCTO, PERIODO) %>%
  group_by(ALMACEN, PRODUCTO, ANIO=lubridate::year(PERIODO)) %>%
  mutate(VTA_ACUM = cumsum(VTA)) 
```

```
## # A tibble: 360 x 9
## # Groups:   ALMACEN, PRODUCTO, ANIO [36]
##    ALMACEN      PRODUCTO PERIODO      VTA MARGEN  PPTO VTA_COSTO  ANIO VTA_ACUM
##    <chr>        <chr>    <date>     <dbl>  <dbl> <dbl>     <dbl> <dbl>    <dbl>
##  1 Mall del Sol Prod_A   2015-01-01 2725.  0.236 3354.     2082.  2015    2725.
##  2 Mall del Sol Prod_A   2015-02-01 5065.  0.306 1692.     3517.  2015    7791.
##  3 Mall del Sol Prod_A   2015-03-01 4934.  0.275 6200.     3577.  2015   12725.
##  4 Mall del Sol Prod_A   2015-04-01 5551.  0.274 3531.     4032.  2015   18276.
##  5 Mall del Sol Prod_A   2015-05-01 2596.  0.353 1707.     1679.  2015   20872.
##  6 Mall del Sol Prod_A   2015-06-01 4991.  0.253 5991.     3730.  2015   25862.
##  7 Mall del Sol Prod_A   2015-07-01 5261.  0.279 5498.     3791.  2015   31124.
##  8 Mall del Sol Prod_A   2015-08-01 1617.  0.438 1712.      910.  2015   32741.
##  9 Mall del Sol Prod_A   2015-09-01 5694.  0.310 5320.     3926.  2015   38434.
## 10 Mall del Sol Prod_A   2015-10-01 3464.  0.287 5157.     2470.  2015   41899.
## # ... with 350 more rows
```
…
